Mineração de Texto com as legendas de Game of Thrones | Phelipe Teles
…
nosso, caso faremos com as legendas de GOT.
Obtendo os dados
#
Os dados brutos foram coletados
aqui
, formato JSON. São 7
arquivos, que contêm todas as legendas para as sete temporadas de GOT.
Felizmente, há uma biblioteca para ler arquivos JSON no R, o jsonlite.
No código abaixo, o que fiz foi ler cada arquivo, aplicando a função
jsonlite::fromJSON() a cada um deles com purrr::map(), o que me dá uma
lista. Depois, transformei essa lista em um vetor com unlist(), que por fim
transformei em um data.frame com tibble::enframe().
svg_*]:fill-current">

## # A tibble: 44,890 x 2
##    name                             value
##    <chr>                            <chr>
##  1 Game Of Thrones S01E01 Winter I~ Easy, boy.
##  2 Game Of Thrones S01E01 Winter I~ Our orders were to track the wildlings.
##  3 Game Of Thrones S01E01 Winter I~ - Right. Give it here. - No!
##  4 Game Of Thrones S01E01 Winter I~ Put away your blade.
##  5 Game Of Thrones S01E01 Winter I~ - I take orders from your father, not ~
##  6 Game Of Thrones S01E01 Winter I~ I'm sorry, Bran.
##  7 Game Of Thrones S01E01 Winter I~ Lord Stark?
##  8 Game Of Thrones S01E01 Winter I~ There are five pups.
##  9 Game Of Thrones S01E01 Winter I~ One for each of the Stark children.
## 10 Game Of Thrones S01E01 Winter I~ The direwolf is the sigil of your hous~
## # ... with 44,880 more rows

Agora vamos limpar esse DataFrame, procurando extrair variáveis interessantes
como temporada, número e nome do episódio etc.
Primeiro vamos retirar o prefixo ‘Game of Throns S’, o que nos deixa com ‘01E01
Winter Is Coming’, ‘{Temporada}E{Episódio} {Nome do episódio}’. Vamos usar
regexes para extrair cada parte individualmente.
svg_*]:fill-current">

## # A tibble: 44,890 x 4
##    season episode name          value
##     <dbl>   <dbl> <chr>         <chr>
##  1      1       1 Winter Is Co~ Easy, boy.
##  2      1       1 Winter Is Co~ Our orders were to track the wildlings.
##  3      1       1 Winter Is Co~ - Right. Give it here. - No!
##  4      1       1 Winter Is Co~ Put away your blade.
##  5      1       1 Winter Is Co~ - I take orders from your father, not you.~
##  6      1       1 Winter Is Co~ I'm sorry, Bran.
##  7      1       1 Winter Is Co~ Lord Stark?
##  8      1       1 Winter Is Co~ There are five pups.
##  9      1       1 Winter Is Co~ One for each of the Stark children.
## 10      1       1 Winter Is Co~ The direwolf is the sigil of your house.
## # ... with 44,880 more rows

Podemos tornar isso se quebrarmos a coluna value em unidades menores, como
palavras. O pacote tidytext tem uma função para isso, chamada unnest_tokens.
É mais geral e pode servir para separar um texto em caracteres, frases,
parágrafos etc.
Será útil também a função rownames_to_column, para podermos saber quais
palavras pertencem à mesma frase após a separação etc.
svg_*]:fill-current">

## # A tibble: 286,901 x 5
##    rowname season episode name             word
##    <chr>    <dbl>   <dbl> <chr>            <chr>
##  1 1            1       1 Winter Is Coming easy
##  2 1            1       1 Winter Is Coming boy
##  3 2            1       1 Winter Is Coming our
##  4 2            1       1 Winter Is Coming orders
##  5 2            1       1 Winter Is Coming were
##  6 2            1       1 Winter Is Coming to
##  7 2            1       1 Winter Is Coming track
##  8 2            1       1 Winter Is Coming the
##  9 2            1       1 Winter Is Coming wildlings
## 10 3            1       1 Winter Is Coming right
## # ... with 286,891 more rows

Vamos contar quais são as palavras mais comuns:
svg_*]:fill-current">

## # A tibble: 9,695 x 2
##    word      n
##    <chr> <int>
##  1 the   11856
##  2 you   10585
##  3 i     10267
##  4 to     7864
##  5 a      6006
##  6 and    5064
##  7 of     4430
##  8 your   3342
##  9 my     3234
## 10 it     2962
## # ... with 9,685 more rows

A maioria são preposições, pronomes etc., o que não é muito interessante.
Felizmente, isso é muito facilmente resolvido por esse pacote. Basta rodar um
dplyr::anti_join com um dataset que contém essas palavras, conhecidas como
‘stop words’.
svg_*]:fill-current">

## Joining, by = "word"

svg_*]:fill-current">

## # A tibble: 9,079 x 2
##    word        n
##    <chr>   <int>
##  1 lord     1133
##  2 king      831
##  3 father    693
##  4 grace     517
##  5 time      513
##  6 lady      510
##  7 north     412
##  8 stark     409
##  9 people    394
## 10 brother   393
## # ... with 9,069 more rows

E aqui vemos algo mais específico de GOT, mas essas palavras são assim tão
frequentes por serem pronomes de tratamento de GOT, são as stop words desse
universo. Por isso, achei prudente retirá-las.
svg_*]:fill-current">

## # A tibble: 9,065 x 2
##    word       n
##    <chr>  <int>
##  1 time     513
##  2 north    412
##  3 stark    409
##  4 people   394
##  5 dead     375
##  6 kill     349
##  7 fight    313
##  8 told     295
##  9 die      284
## 10 life     278
## # ... with 9,055 more rows

E aqui as coisas começam a ficar interessantes!
A
base limpa com essas palavras pode ser baixada aqui
.
Correlação entre as palavras
#
Agora, vamos visualizar quais as palavras que aparecem juntas com mais
frequência, com a função pairwise_cor do pacote widyr.
Só precisamos filtrar nossa base antes, porque não queremos que o R compare cada
par de 81579 palavras: escolheremos as palavras que apareçam 50 vezes ou mais.
svg_*]:fill-current">

## # A tibble: 109,892 x 3
##    item1    item2    correlation
##    <chr>    <chr>          <dbl>
##  1 color    font           0.968
##  2 font     color          0.968
##  3 rock     casterly       0.908
##  4 casterly rock           0.908
##  5 watch    night's        0.674
##  6 night's  watch          0.674
##  7 white    walkers        0.639
##  8 walkers  white          0.639
##  9 jon      snow           0.540
## 10 snow     jon            0.540
## # ... with 109,882 more rows
…
Nuvem de palavras por temporadaAnálise de sentimentos
#
Outra coisa que é interessante de ser feita é analisar o sentimento médio do
texto, se nele há mais palavras consideradas negativas ou positivas etc.
Esse é um tópico delicado teoricamente, já que não é algo tão trivial para um
computador deduzir se uma frase expressa um sentimento bom ou ruim. Não vamos
deixar o computador fazer isso, mas usar um léxico que mapeia palavras a
sentimentos, feito por humanos.
Por exemplo, o léxico afinn classifica algumas mil palavras em uma escala que
varia de -5 (muito negativo) até 5 (muito positivo).
svg_*]:fill-current">

## # A tibble: 2,476 x 2
##    word       score
##    <chr>      <int>
##  1 abandon       -2
##  2 abandoned     -2
##  3 abandons      -2
##  4 abducted      -2
##  5 abduction     -2
##  6 abductions    -2
##  7 abhor         -3
##  8 abhorred      -3
##  9 abhorrent     -3
## 10 abhors        -3
## # ... with 2,466 more rows

Já esse classifica cada palavra binariamente, em ‘negativa’ ou ‘positiva’,
cobrindo uma porção maior de palavras.
svg_*]:fill-current">

## # A tibble: 6,788 x 2
##    word        sentiment
##    <chr>       <chr>
##  1 2-faced     negative
##  2 2-faces     negative
##  3 a+          positive
##  4 abnormal    negative
##  5 abolish     negative
##  6 abominable  negative
##  7 abominably  negative
##  8 abominate   negative
##  9 abomination negative
## 10 abort       negative
## # ... with 6,778 more rows

Outra base possível de ser usada é essa, que cobre muito mais palavras e
categorias, além de ter mais palavras positivas (em relação às negativas) que a
base ‘bing’.
svg_*]:fill-current">

## # A tibble: 13,901 x 2
##    word        sentiment
##    <chr>       <chr>
##  1 abacus      trust
##  2 abandon     fear
##  3 abandon     negative
##  4 abandon     sadness
##  5 abandoned   anger
##  6 abandoned   fear
##  7 abandoned   negative
##  8 abandoned   sadness
##  9 abandonment anger
## 10 abandonment fear
## # ... with 13,891 more rows
…
